digraph "nhs_kiosk_application.Content.KnowledgeQuiz"
{
 // LATEX_PDF_SIZE
  edge [fontname="Helvetica",fontsize="10",labelfontname="Helvetica",labelfontsize="10"];
  node [fontname="Helvetica",fontsize="10",shape=record];
  Node1 [label="nhs_kiosk_application.Content.\lKnowledgeQuiz",height=0.2,width=0.4,color="black", fillcolor="grey75", style="filled", fontcolor="black",tooltip="An empty page that can be used on its own or navigated to within a Frame."];
  Node2 -> Node1 [dir="back",color="midnightblue",fontsize="10",style="solid",fontname="Helvetica"];
  Node2 [label="Page",height=0.2,width=0.4,color="grey75", fillcolor="white", style="filled",tooltip=" "];
}
